EDA
…
Exploratory Data Analysis

Validating the Data

In terms of exploratory data analysis, I always like to take the first step of exploring missing values:

(sum(is.na(diabetes)))

[1] 0

Great! It looks like there are none. I think a natural next step would be to investigate all of the variables individually, and make sure their names are legible and their values are logical.

as_tibble(diabetes, width = Inf)

# A tibble: 253,680 × 22
   Diabetes_binary HighBP HighChol CholCheck   BMI Smoker Stroke
             <dbl>  <dbl>    <dbl>     <dbl> <dbl>  <dbl>  <dbl>
 1               0      1        1         1    40      1      0
 2               0      0        0         0    25      1      0
 3               0      1        1         1    28      0      0
 4               0      1        0         1    27      0      0
 5               0      1        1         1    24      0      0
 6               0      1        1         1    25      1      0
 7               0      1        0         1    30      1      0
 8               0      1        1         1    25      1      0
 9               1      1        1         1    30      1      0
10               0      0        0         1    24      0      0
# ℹ 253,670 more rows
# ℹ 15 more variables: HeartDiseaseorAttack <dbl>, PhysActivity <dbl>,
#   Fruits <dbl>, Veggies <dbl>, HvyAlcoholConsump <dbl>, AnyHealthcare <dbl>,
#   NoDocbcCost <dbl>, GenHlth <dbl>, MentHlth <dbl>, PhysHlth <dbl>,
#   DiffWalk <dbl>, Sex <dbl>, Age <dbl>, Education <dbl>, Income <dbl>
…
