Modeling
…
tree_wkf <- workflow() |>
  add_recipe(tree_rec) |>
  add_model(tree_mod)

tree_fits <- tree_wkf |> 
  tune_grid(resamples = cv_folds,
            grid = tree_grid,metrics = metric_set(mn_log_loss))

tree_fits |>
  collect_metrics()

# A tibble: 25 × 8
   cost_complexity tree_depth .metric     .estimator  mean     n std_err .config
             <dbl>      <int> <chr>       <chr>      <dbl> <int>   <dbl> <chr>  
 1    0.0000000001          1 mn_log_loss binary     0.415     5  0.0113 Prepro…
 2    0.0000000178          1 mn_log_loss binary     0.415     5  0.0113 Prepro…
 3    0.00000316            1 mn_log_loss binary     0.415     5  0.0113 Prepro…
 4    0.000562              1 mn_log_loss binary     0.415     5  0.0113 Prepro…
 5    0.1                   1 mn_log_loss binary     0.415     5  0.0113 Prepro…
 6    0.0000000001          4 mn_log_loss binary     0.415     5  0.0113 Prepro…
 7    0.0000000178          4 mn_log_loss binary     0.415     5  0.0113 Prepro…
 8    0.00000316            4 mn_log_loss binary     0.415     5  0.0113 Prepro…
 9    0.000562              4 mn_log_loss binary     0.415     5  0.0113 Prepro…
10    0.1                   4 mn_log_loss binary     0.415     5  0.0113 Prepro…
# ℹ 15 more rows

tree_fits |>
  collect_metrics() |>
  filter(.metric == "mn_log_loss") |>
  arrange(mean)

# A tibble: 25 × 8
   cost_complexity tree_depth .metric     .estimator  mean     n std_err .config
             <dbl>      <int> <chr>       <chr>      <dbl> <int>   <dbl> <chr>  
 1    0.0000000001          1 mn_log_loss binary     0.415     5  0.0113 Prepro…
 2    0.0000000178          1 mn_log_loss binary     0.415     5  0.0113 Prepro…
 3    0.00000316            1 mn_log_loss binary     0.415     5  0.0113 Prepro…
 4    0.000562              1 mn_log_loss binary     0.415     5  0.0113 Prepro…
 5    0.1                   1 mn_log_loss binary     0.415     5  0.0113 Prepro…
 6    0.0000000001          4 mn_log_loss binary     0.415     5  0.0113 Prepro…
 7    0.0000000178          4 mn_log_loss binary     0.415     5  0.0113 Prepro…
 8    0.00000316            4 mn_log_loss binary     0.415     5  0.0113 Prepro…
 9    0.000562              4 mn_log_loss binary     0.415     5  0.0113 Prepro…
10    0.1                   4 mn_log_loss binary     0.415     5  0.0113 Prepro…
# ℹ 15 more rows
…
# A tibble: 1 × 4
  .metric     .estimator .estimate .config             
  <chr>       <chr>          <dbl> <chr>               
1 mn_log_loss binary         0.351 Preprocessor1_Model1

rf_full_fit <- rf_final_wkf |>
 fit(diabetes_final)

rf_final_model <- extract_fit_engine(rf_full_fit)

rf_imp <- tibble(term = names(importance(rf_final_model)),value = importance(rf_final_model)) |> arrange(desc(value))
rf_imp

# A tibble: 35 × 2
   term        value
   <chr>       <dbl>
 1 GenHlth_1   66.4 
 2 Age_01      21.2 
 3 GenHlth_3   19.1 
 4 GenHlth_4   10.9 
 5 Age_03       6.81
 6 GenHlth_2    6.03
 7 Income_1     4.90
 8 Age_04       2.80
 9 PhysHlth_1   2.33
10 Education_1  1.95
# ℹ 25 more rows
…
